…
### .sampleinfo

To view the sample information, you can use `popdata.metadata.sampleinfo`, or the shortcut `PopData.sampleinfo`

```julia
julia> ncats.sampleinfo
237×3 DataFrame
 Row │ name      population  ploidy 
     │ String7…  String      Int8   
─────┼──────────────────────────────
   1 │ N217      1                2
   2 │ N218      1                2
   3 │ N219      1                2
   4 │ N220      1                2
   5 │ N221      1                2
   6 │ N222      1                2
  ⋮  │    ⋮          ⋮         ⋮
 232 │ N197      14               2
 233 │ N198      14               2
 234 │ N199      14               2
 235 │ N200      14               2
 236 │ N201      14               2
 237 │ N206      14               2
                    222 rows omitted
…
</TabItem>
</Tabs>
--------------------

## The genotype table

### .genodata

This will show you the entire `genodata` table.

```julia
julia> ncats.genodata
2133×4 DataFrame
  Row │ name    population  locus   genotype
      │ String  String      String  Tuple…?
──────┼────────────────────────────────────────
    1 │ N215    1           fca8    missing
    2 │ N216    1           fca8    missing
    3 │ N217    1           fca8    (135, 143)
    4 │ N218    1           fca8    (133, 135)
    5 │ N219    1           fca8    (133, 135)
    6 │ N220    1           fca8    (135, 143)
  ⋮   │   ⋮         ⋮         ⋮         ⋮
 2128 │ N295    17          fca37   (208, 208)
 2129 │ N296    17          fca37   (208, 220)
 2130 │ N297    17          fca37   (208, 208)
 2131 │ N281    17          fca37   (208, 208)
 2132 │ N289    17          fca37   (208, 208)
 2133 │ N290    17          fca37   (208, 208)
                              2121 rows omitted
```
…
