…
<Tabs
  block={true}
  defaultValue="s"
  values={[
    { label: 'single sample', value: 's', },
    { label: 'multiple samples', value: 'm', },
    { label: 'name and locus', value: 'nl', },
    { label: 'advanced usage', value: 'advanced', },
  ]
}>
<TabItem value="s">

```julia
julia> @where(sharks.genodata, :name .== "cc_001")
2209×4 DataFrame
  Row │ name    population      locus         genotype
      │ String  String          String        Tuple…?
──────┼────────────────────────────────────────────────
    1 │ cc_001  Cape Canaveral  contig_35208  (1, 2)
    2 │ cc_001  Cape Canaveral  contig_23109  (1, 1)
    3 │ cc_001  Cape Canaveral  contig_4493   (1, 2)
    4 │ cc_001  Cape Canaveral  contig_10742  (1, 1)
    5 │ cc_001  Cape Canaveral  contig_14898  (1, 2)
    6 │ cc_001  Cape Canaveral  contig_8483   (1, 1)
  ⋮   │   ⋮           ⋮              ⋮           ⋮
 2205 │ cc_001  Cape Canaveral  contig_27356  (1, 1)
 2206 │ cc_001  Cape Canaveral  contig_475    (1, 2)
 2207 │ cc_001  Cape Canaveral  contig_19384  (2, 2)
 2208 │ cc_001  Cape Canaveral  contig_22368  (1, 1)
 2209 │ cc_001  Cape Canaveral  contig_2784   (1, 1)
                                      2198 rows omitted
```

</TabItem>
<TabItem value="m">

```julia
julia> @where(sharks.genodata, :name .∈ Ref(["cc_001", "cc_002"]))
4418×4 DataFrame
  Row │ name    population      locus         genotype
      │ String  String          String        Tuple…?
──────┼────────────────────────────────────────────────
    1 │ cc_001  Cape Canaveral  contig_35208  (1, 2)
    2 │ cc_002  Cape Canaveral  contig_35208  (1, 2)
    3 │ cc_001  Cape Canaveral  contig_23109  (1, 1)
    4 │ cc_002  Cape Canaveral  contig_23109  (1, 2)
    5 │ cc_001  Cape Canaveral  contig_4493   (1, 2)
    6 │ cc_002  Cape Canaveral  contig_4493   (1, 1)
  ⋮   │   ⋮           ⋮              ⋮           ⋮
 4414 │ cc_002  Cape Canaveral  contig_19384  (2, 2)
 4415 │ cc_001  Cape Canaveral  contig_22368  (1, 1)
 4416 │ cc_002  Cape Canaveral  contig_22368  (1, 1)
 4417 │ cc_001  Cape Canaveral  contig_2784   (1, 1)
 4418 │ cc_002  Cape Canaveral  contig_2784   (1, 1)
                                      4407 rows omitted
```
…
