Accessing elements | PopGen.jl
…
Copy

Now that we have nancycats loaded in, we can use standard Julia accessor conventions to view the elements within our PopData. The DataFrames uses the convention PopData.meta.colname to directly access the columns we want.
The metadata table#
.meta#
To view the entire meta table.
julia> ncats.meta
237×5 DataFrame
 Row │ name    population  ploidy  longitude  latitude
     │ String  String      Int8    Float32?   Float32?
─────┼─────────────────────────────────────────────────
   1 │ N215    1                2   missing   missing
   2 │ N216    1                2   missing   missing
   3 │ N217    1                2   missing   missing
   4 │ N218    1                2   missing   missing
   5 │ N219    1                2   missing   missing
   6 │ N220    1                2   missing   missing
  ⋮  │   ⋮         ⋮         ⋮         ⋮         ⋮
 232 │ N295    17               2   missing   missing
 233 │ N296    17               2   missing   missing
 234 │ N297    17               2   missing   missing
 235 │ N281    17               2   missing   missing
 236 │ N289    17               2   missing   missing
 237 │ N290    17               2   missing   missing
                                       225 rows omitted
…
Copy

actually seeing some location info 

The nancycats data has some weird coordinate system for information, so those data were omitted. If you want a proof of concept for .longitude and .latitude, load in gulfsharks and try it out. We'll use DataFrames.select to isolate just the information we want. Later, you'll see that the locations command does this.
julia> sharks = @gulfsharks ;    # semicolon just supresses printing output

julia> select(sharks.meta, :name, :longitude, :latitude)
212×3 DataFrame
 Row │ name     longitude  latitude
     │ String   Float64    Float64
─────┼──────────────────────────────
   1 │ cc_001     28.3062  -80.5993
   2 │ cc_002     28.3079  -80.5995
   3 │ cc_003     28.3023  -80.5996
   4 │ cc_005     28.6123  -80.4225
   5 │ cc_007     27.8666  -80.3578
   6 │ cc_008     27.8666  -80.3579
  ⋮  │    ⋮         ⋮         ⋮
 207 │ seg_026    30.0696  -86.5376
 208 │ seg_027    29.9065  -86.0905
 209 │ seg_028    30.0532  -87.3661
 210 │ seg_029    30.0522  -87.3662
 211 │ seg_030    29.8234  -85.7143
 212 │ seg_031    29.8234  -85.7143
                    200 rows omitted

Copy

The genotype table#
.loci#
This will show you the entire loci table.
julia> ncats.loci
2133×4 DataFrame
  Row │ name    population  locus   genotype
      │ String  String      String  Tuple…?
──────┼────────────────────────────────────────
    1 │ N215    1           fca8    missing
    2 │ N216    1           fca8    missing
    3 │ N217    1           fca8    (135, 143)
    4 │ N218    1           fca8    (133, 135)
    5 │ N219    1           fca8    (133, 135)
    6 │ N220    1           fca8    (135, 143)
  ⋮   │   ⋮         ⋮         ⋮         ⋮
 2128 │ N295    17          fca37   (208, 208)
 2129 │ N296    17          fca37   (208, 220)
 2130 │ N297    17          fca37   (208, 208)
 2131 │ N281    17          fca37   (208, 208)
 2132 │ N289    17          fca37   (208, 208)
 2133 │ N290    17          fca37   (208, 208)
                              2121 rows omitted
…
Copy

view genotypes#
Because the genotype data is in "tidy" format, accessing genotypes in a meaningful way is not immediately obvious. We can of course follow the same convention of data.loci.genotype as we have above, but a list of all the genotypes across all individuals, loci, and populations isn't terribly useful. Instead, we can use the DataFrames or DataFramesMeta interfaces to retrieve this information. Here are examples using @where from DataFramesMeta:
single locus
multiple loci
population
julia> @where(ncats.loci, :locus .== "fca8")
237×4 DataFrame
 Row │ name    population  locus   genotype
     │ String  String      String  Tuple…?
─────┼────────────────────────────────────────
   1 │ N215    1           fca8    missing
   2 │ N216    1           fca8    missing
   3 │ N217    1           fca8    (135, 143)
   4 │ N218    1           fca8    (133, 135)
   5 │ N219    1           fca8    (133, 135)
   6 │ N220    1           fca8    (135, 143)
  ⋮  │   ⋮         ⋮         ⋮         ⋮
 232 │ N295    17          fca8    (133, 141)
 233 │ N296    17          fca8    (133, 141)
 234 │ N297    17          fca8    (133, 143)
 235 │ N281    17          fca8    (135, 141)
 236 │ N289    17          fca8    (137, 143)
 237 │ N290    17          fca8    (135, 141)
                              225 rows omitted

Copy

julia> @where(ncats.loci, :locus .∈ Ref(["fca8", "fca23"]))
474×4 DataFrame
 Row │ name    population  locus   genotype
     │ String  String      String  Tuple…?
─────┼────────────────────────────────────────
   1 │ N215    1           fca8    missing
   2 │ N216    1           fca8    missing
   3 │ N217    1           fca8    (135, 143)
   4 │ N218    1           fca8    (133, 135)
   5 │ N219    1           fca8    (133, 135)
   6 │ N220    1           fca8    (135, 143)
  ⋮  │   ⋮         ⋮         ⋮         ⋮
 469 │ N295    17          fca23   (130, 136)
 470 │ N296    17          fca23   (136, 146)
 471 │ N297    17          fca23   (130, 130)
 472 │ N281    17          fca23   (136, 144)
 473 │ N289    17          fca23   (130, 136)
 474 │ N290    17          fca23   (130, 146)
                              462 rows omitted

Copy

julia> @where(ncats.loci, :population .== "9")
81×4 DataFrame
 Row │ name    population  locus   genotype
     │ String  String      String  Tuple…?
─────┼────────────────────────────────────────
   1 │ N104    9           fca8    (121, 135)
   2 │ N105    9           fca8    (137, 137)
   3 │ N106    9           fca8    (135, 135)
   4 │ N107    9           fca8    (121, 135)
   5 │ N108    9           fca8    (135, 135)
   6 │ N109    9           fca8    (137, 137)
  ⋮  │   ⋮         ⋮         ⋮         ⋮
  76 │ N107    9           fca37   (182, 208)
  77 │ N108    9           fca37   (208, 208)
  78 │ N109    9           fca37   (182, 208)
  79 │ N111    9           fca37   (208, 214)
  80 │ N112    9           fca37   (182, 206)
  81 │ N113    9           fca37   (208, 214)
                               69 rows omitted
…
