Relatedness Tutorial | PopGen.jl
…
Copy

By default, the relatedness function uses a 95% CI (interval = (0.025, 0.975)), but you can change that with interval = (low,high) where low and high are decimals of your quantiles.
The relatedness() function returns a NamedTuple of dataframes whenever you are bootstrapping, where each element shares its name with the method used, so in this case, we can access our results with rel_out.LynchLi.
relatedness
plotting
julia> rel_out.LynchLi
27966×8 DataFrame
   Row │ sample_1  sample_2  n_loci  LynchLi     LynchLi_mean  LynchLi_median  LynchLi_S ⋯
       │ String    String    Int64   Float64?    Float64?      Float64?        Float64?  ⋯
───────┼──────────────────────────────────────────────────────────────────────────────────
     1 │ N215      N216           8   0.743535      0.747288        0.748042     0.75344 ⋯
     2 │ N215      N217           8   0.230605      0.233593        0.240085     0.34187
     3 │ N215      N218           8   0.230605      0.230507        0.221861     0.32161
     4 │ N215      N219           8   0.230605      0.23601         0.23567      0.32782
     5 │ N215      N220           8   0.333191      0.33798         0.350492     0.39898 ⋯
     6 │ N215      N221           8   0.589656      0.594223        0.601308     0.61945
     7 │ N215      N222           8   0.0254328     0.0347216       0.0262021    0.21408
     8 │ N215      N223           8   0.333191      0.329983        0.331411     0.38402
     9 │ N215      N224           8  -0.0258602    -0.021062       -0.0301579    0.21112 ⋯
    10 │ N215      N7             8  -0.282325     -0.27967        -0.288337     0.33611
    11 │ N215      N141           8  -0.0771532    -0.0796867      -0.083113     0.21261
    12 │ N215      N142           8   0.0254328     0.0302549       0.0330718    0.23957
   ⋮   │    ⋮         ⋮        ⋮         ⋮            ⋮              ⋮             ⋮     ⋱
 27955 │ N295      N289           7   0.322731      0.347021        0.34118      0.41168 ⋯
 27956 │ N295      N290           7   0.153414      0.160102        0.164866     0.22862
 27957 │ N296      N297           7  -0.0159038    -0.0182747      -0.0187108    0.16981
 27958 │ N296      N281           7   0.0405353     0.037025        0.0422647    0.15294
 27959 │ N296      N289           7   0.322731      0.328379        0.337317     0.35578 ⋯
 27960 │ N296      N290           7   0.153414      0.152384        0.16194      0.19131
 27961 │ N297      N281           7  -0.0159038    -0.0128349      -0.0303449    0.21030
 27962 │ N297      N289           7   0.37917       0.392517        0.392818     0.45139
 27963 │ N297      N290           7   0.435609      0.437829        0.450044     0.47027 ⋯
 27964 │ N281      N289           8   0.20428       0.21279         0.207425     0.29611
 27965 │ N281      N290           7   0.37917       0.386583        0.390585     0.45471
 27966 │ N289      N290           7   0.209853      0.217811        0.222894     0.28649
                                                          2 columns and 27942 rows omitted
…
Copy

Technically, we could merge all three results into a single PopData, but it will be easier to explain things if we don't. Feel free to take a peep into the simulated data:
meta
loci
julia> unrelated_sims.meta
1000×5 DataFrame
  Row │ name            population  ploidy  longitude  latitude 
      │ String          String      Int64   Float32?   Float32? 
──────┼─────────────────────────────────────────────────────────
    1 │ sim1_un_off1    unrelated        2   missing   missing  
    2 │ sim1_un_off2    unrelated        2   missing   missing  
    3 │ sim2_un_off1    unrelated        2   missing   missing  
    4 │ sim2_un_off2    unrelated        2   missing   missing  
    5 │ sim3_un_off1    unrelated        2   missing   missing  
    6 │ sim3_un_off2    unrelated        2   missing   missing  
    7 │ sim4_un_off1    unrelated        2   missing   missing  
    8 │ sim4_un_off2    unrelated        2   missing   missing  
    9 │ sim5_un_off1    unrelated        2   missing   missing  
   10 │ sim5_un_off2    unrelated        2   missing   missing  
   11 │ sim6_un_off1    unrelated        2   missing   missing  
   12 │ sim6_un_off2    unrelated        2   missing   missing  
  ⋮   │       ⋮             ⋮         ⋮         ⋮         ⋮
  989 │ sim495_un_off1  unrelated        2   missing   missing  
  990 │ sim495_un_off2  unrelated        2   missing   missing  
  991 │ sim496_un_off1  unrelated        2   missing   missing  
  992 │ sim496_un_off2  unrelated        2   missing   missing  
  993 │ sim497_un_off1  unrelated        2   missing   missing  
  994 │ sim497_un_off2  unrelated        2   missing   missing  
  995 │ sim498_un_off1  unrelated        2   missing   missing  
  996 │ sim498_un_off2  unrelated        2   missing   missing  
  997 │ sim499_un_off1  unrelated        2   missing   missing  
  998 │ sim499_un_off2  unrelated        2   missing   missing  
  999 │ sim500_un_off1  unrelated        2   missing   missing  
 1000 │ sim500_un_off2  unrelated        2   missing   missing  
                                                976 rows omitted

Copy

julia> unrelated_sims.loci
9000×4 DataFrame
  Row │ name            population  locus   genotype   
      │ String          String      String  Tuple…     
──────┼────────────────────────────────────────────────
    1 │ sim1_un_off1    unrelated   fca8    (135, 141)
    2 │ sim1_un_off1    unrelated   fca23   (132, 132)
    3 │ sim1_un_off1    unrelated   fca43   (143, 139)
    4 │ sim1_un_off1    unrelated   fca45   (126, 116)
    5 │ sim1_un_off1    unrelated   fca77   (154, 148)
    6 │ sim1_un_off1    unrelated   fca78   (150, 142)
    7 │ sim1_un_off1    unrelated   fca90   (199, 193)
    8 │ sim1_un_off1    unrelated   fca96   (109, 91)
    9 │ sim1_un_off1    unrelated   fca37   (208, 210)
   10 │ sim1_un_off2    unrelated   fca8    (139, 123)
   11 │ sim1_un_off2    unrelated   fca23   (140, 130)
   12 │ sim1_un_off2    unrelated   fca43   (139, 141)
  ⋮   │       ⋮             ⋮         ⋮         ⋮
 8989 │ sim500_un_off1  unrelated   fca90   (199, 197)
 8990 │ sim500_un_off1  unrelated   fca96   (105, 113)
 8991 │ sim500_un_off1  unrelated   fca37   (208, 208)
 8992 │ sim500_un_off2  unrelated   fca8    (135, 137)
 8993 │ sim500_un_off2  unrelated   fca23   (136, 130)
 8994 │ sim500_un_off2  unrelated   fca43   (139, 145)
 8995 │ sim500_un_off2  unrelated   fca45   (120, 120)
 8996 │ sim500_un_off2  unrelated   fca77   (150, 156)
 8997 │ sim500_un_off2  unrelated   fca78   (142, 152)
 8998 │ sim500_un_off2  unrelated   fca90   (189, 191)
 8999 │ sim500_un_off2  unrelated   fca96   (113, 113)
 9000 │ sim500_un_off2  unrelated   fca37   (208, 182)
                                      8976 rows omitted

Copy

ii. get relatedness estimates for the simulated data#
Next, we want to get the relatedness estimate for each simulated pair of "known" sibship. We are only interested in the values for the simulated pairs and not samples across pairs. If you aren't sure why that is, think of it this way: we're trying to create a range of values where we can confidently say unknown things are full-sibs (or half-sib, etc.), so we want to know what range of values we get from a bunch of known fullsib pairs, not the unknown relationships of samples between pairs. 
It would a nightmare to manually specify only 2 individuals at a time into relatedness(). Instead, the function has a shortcut built into it that will recognize the population names generated from simulate_sibship and only give you relatedness estimates for those pairs. So, we just need to run it once for each of our simulations, this time without bootstrapping because we are only interested in the estimates. Make sure to use the same estimator! The run will be a lot faster this time because it only needs to calculate estimates for 500 pairs each time (our n from above) and without bootstrapping. When not bootstrapping, relatedness() returns a dataframe (versus a NamedTuple of dataframes).
unrelated relatedness
halfsib relatedness
fullsib relatedness
julia> un_sims_rel = relatedness(unrelated_sims, method = LynchLi)
500×4 DataFrame
 Row │ sample_1        sample_2        n_loci  LynchLi    
     │ String          String          Int64   Float64?   
─────┼────────────────────────────────────────────────────
   1 │ sim100_un_off1  sim100_un_off2       9   0.0187624
   2 │ sim101_un_off1  sim101_un_off2       9  -0.204246
   3 │ sim102_un_off1  sim102_un_off2       9   0.0633641
   4 │ sim103_un_off1  sim103_un_off2       9   0.241771
   5 │ sim104_un_off1  sim104_un_off2       9  -0.338051
   6 │ sim105_un_off1  sim105_un_off2       9   0.0187624
   7 │ sim106_un_off1  sim106_un_off2       9  -0.29345
   8 │ sim107_un_off1  sim107_un_off2       9   0.0633641
  ⋮  │       ⋮               ⋮           ⋮         ⋮
 494 │ sim94_un_off1   sim94_un_off2        9  -0.159644
 495 │ sim95_un_off1   sim95_un_off2        9  -0.0704411
 496 │ sim96_un_off1   sim96_un_off2        9   0.0633641
 497 │ sim97_un_off1   sim97_un_off2        9   0.241771
 498 │ sim98_un_off1   sim98_un_off2        9  -0.0704411
 499 │ sim99_un_off1   sim99_un_off2        9   0.241771
 500 │ sim9_un_off1    sim9_un_off2         9   0.197169
                                          485 rows omitted

Copy

julia> half_sims_rel = relatedness(halfsib_sims, method = LynchLi)
500×4 DataFrame
 Row │ sample_1        sample_2        n_loci  LynchLi    
     │ String          String          Int64   Float64?   
─────┼────────────────────────────────────────────────────
   1 │ sim100_hs_off1  sim100_hs_off2       9   0.111231
   2 │ sim101_hs_off1  sim101_hs_off2       9   0.111231
   3 │ sim102_hs_off1  sim102_hs_off2       9   0.333423
   4 │ sim103_hs_off1  sim103_hs_off2       9  -0.0220842
   5 │ sim104_hs_off1  sim104_hs_off2       9   0.111231
   6 │ sim105_hs_off1  sim105_hs_off2       9   0.244546
   7 │ sim106_hs_off1  sim106_hs_off2       9   0.244546
   8 │ sim107_hs_off1  sim107_hs_off2       9   0.377862
  ⋮  │       ⋮               ⋮           ⋮         ⋮
 494 │ sim94_hs_off1   sim94_hs_off2        9   0.200108
 495 │ sim95_hs_off1   sim95_hs_off2        9   0.244546
 496 │ sim96_hs_off1   sim96_hs_off2        9   0.0223543
 497 │ sim97_hs_off1   sim97_hs_off2        9   0.200108
 498 │ sim98_hs_off1   sim98_hs_off2        9   0.111231
 499 │ sim99_hs_off1   sim99_hs_off2        9   0.333423
 500 │ sim9_hs_off1    sim9_hs_off2         9   0.288985
                                          485 rows omitted

Copy

julia> full_sims_rel = relatedness(fullsib_sims, method = LynchLi)
500×4 DataFrame
 Row │ sample_1        sample_2        n_loci  LynchLi   
     │ String          String          Int64   Float64?  
─────┼───────────────────────────────────────────────────
   1 │ sim100_fs_off1  sim100_fs_off2       9  0.510483
   2 │ sim101_fs_off1  sim101_fs_off2       9  0.465982
   3 │ sim102_fs_off1  sim102_fs_off2       9  0.42148
   4 │ sim103_fs_off1  sim103_fs_off2       9  0.376979
   5 │ sim104_fs_off1  sim104_fs_off2       9  0.465982
   6 │ sim105_fs_off1  sim105_fs_off2       9  0.688489
   7 │ sim106_fs_off1  sim106_fs_off2       9  0.287976
   8 │ sim107_fs_off1  sim107_fs_off2       9  0.599486
  ⋮  │       ⋮               ⋮           ⋮         ⋮
 494 │ sim94_fs_off1   sim94_fs_off2        9  0.688489
 495 │ sim95_fs_off1   sim95_fs_off2        9  0.821994
 496 │ sim96_fs_off1   sim96_fs_off2        9  0.554985
 497 │ sim97_fs_off1   sim97_fs_off2        9  0.599486
 498 │ sim98_fs_off1   sim98_fs_off2        9  0.554985
 499 │ sim99_fs_off1   sim99_fs_off2        9  0.510483
 500 │ sim9_fs_off1    sim9_fs_off2         9  0.376979
                                         485 rows omitted
…
