…
<Tabs
  block={true}
  defaultValue="s"
  values={[
    { label: 'sampleinfo', value: 's', },
    { label: 'genodata', value: 'g', },
  ]
}>
<TabItem value="s">

```
julia> sampleinfo(sims)

  1700×5 DataFrame
  Row │ name      population  ploidy   
      │ String    String      Int8      
──────┼───────────────────────────────
    1 │ sim_1     1                2    
    2 │ sim_2     1                2    
    3 │ sim_3     1                2    
    4 │ sim_4     1                2    
    5 │ sim_5     1                2    
  ⋮   │    ⋮          ⋮         ⋮ 
 1697 │ sim_1697  17               2  
 1698 │ sim_1698  17               2  
 1699 │ sim_1699  17               2  
 1700 │ sim_1700  17               2  
                                         1691 rows omitted 
```

</TabItem>
<TabItem value="g">

```
julia> genodata(sims)
15300×4 DataFrame
   Row │ name      population  locus   genotype   
       │ String    String      String  Tuple…?    
───────┼──────────────────────────────────────────
     1 │ sim_1     1           fca8    (135, 143)
     2 │ sim_1     1           fca23   (136, 146)
     3 │ sim_1     1           fca43   (141, 145)
     4 │ sim_1     1           fca45   (120, 126)
     5 │ sim_1     1           fca77   (156, 156)
   ⋮   │    ⋮          ⋮         ⋮         ⋮
 15297 │ sim_1700  17          fca78   (150, 150)
 15298 │ sim_1700  17          fca90   (197, 197)
 15299 │ sim_1700  17          fca96   (113, 113)
 15300 │ sim_1700  17          fca37   (208, 208)
                                15291 rows omitted
```
…
