…
Also known as geographic or coordinate data. The `sampleinfo` in the metadata can contain this information, which is not currently used in
any analyses present in PopGen.jl.

## View location data

```julia
locationdata(data::PopData)
```

View location (if present) data in a `PopData`,  returning a table the longitude and latitude information in the `metadata`. 

```julia
julia> locationdata(sharks)
212×2 SubDataFrame
 Row │ longitude  latitude 
     │ Float64    Float64  
─────┼─────────────────────
   1 │   28.3062  -80.5993
   2 │   28.3079  -80.5995
   3 │   28.3023  -80.5996
  ⋮  │     ⋮         ⋮
 210 │   30.0522  -87.3662
 211 │   29.8234  -85.7143
 212 │   29.8234  -85.7143
           206 rows omitted
```
…
