…
</TabItem>
<TabItem value="b">

```julia
julia> cats = @nancycats ; 

julia> kinship_new(cats, method = Moran, iterations = 100)
27966×7 DataFrame
   Row │ sample1  sample2  Moran     bootmean  std       CI_lower      CI_upper 
       │ String   String   Float64   Float64   Float64   Float64       Float64  
───────┼────────────────────────────────────────────────────────────────────────
     1 │ N215     N216     1.62338   0.376626  0.27286    0.00274863   0.916719
     2 │ N215     N217     0.673577  0.202888  0.20094    0.00105976   0.59871
     3 │ N215     N218     0.896935  0.206272  0.232048   7.58373e-5   0.786113
     4 │ N215     N219     0.988931  0.236503  0.221345  -0.00053018   0.718204
   ⋮   │    ⋮        ⋮        ⋮         ⋮         ⋮           ⋮           ⋮
 27964 │ N281     N289     0.942749  0.220475  0.200358   0.001656     0.799307
 27965 │ N281     N290     1.08762   0.285053  0.289967   0.000299019  1.09343
 27966 │ N289     N290     1.104     0.277445  0.235519   0.00186445   0.858206
                                                              27959 rows omitted
```
…
</TabItem>
<TabItem value="b">

```julia
julia> cats = @nancycats ; 

julia> kin = kinship(cats, samplenames(cats)[1:10], method = Moran, iteratons = 100)
45×7 DataFrame
 Row │ sample1  sample2  Moran     bootmean   std       CI_lower      CI_upper 
     │ String   String   Float64   Float64    Float64   Float64       Float64  
─────┼─────────────────────────────────────────────────────────────────────────
   1 │ N215     N216     2.40275   0.166804   0.192498  -0.00103402   0.558154
   2 │ N215     N217     0.860832  0.132997   0.157386   0.00079658   0.500806
   3 │ N215     N218     1.17754   0.138991   0.193997   0.00178298   0.620476
   4 │ N215     N219     1.36268   0.118936   0.169152   0.000739799  0.527514
  ⋮  │    ⋮        ⋮        ⋮          ⋮         ⋮           ⋮           ⋮
  43 │ N222     N223     0.78841   0.0947265  0.1087    -0.000671851  0.316755
  44 │ N222     N224     0.905063  0.121569   0.125794   0.000570054  0.387836
  45 │ N223     N224     0.654129  0.0729529  0.121482   0.00105724   0.403654
                                                                38 rows omitted
```
…
