…
### Keyword Arguments
- `method` : A method function or vector of method functions (see below)
- `iterations` : The number of iterations to perform bootstrapping (default: `0`, will not perform bootstrapping)
- `interval` : A Tuple of (low, high) indicating the confidence intervals you would like for bootstrapping (default: `(0.275, 0.975)`, i.e. 95%)
- `inbreeding` : true/false of whether to consider inbreeding in the calculations (default: `false`). Only used in `dyadML`

**Examples**
```
julia> cats = @nancycats;

julia> relatedness(cats, method = Ritland)
27966×4 DataFrame
    Row │ sample_1  sample_2  n_loci  Ritland
        │ String    String    Int64   Float64?
 ───────┼─────────────────────────────────────────
      1 │ N215      N216           8   0.258824
      2 │ N215      N217           8   0.193238
      3 │ N215      N218           8   0.127497
      4 │ N215      N219           8   0.0453471
   ⋮   │    ⋮         ⋮        ⋮          ⋮
  27963 │ N297      N290           7   0.189647
  27964 │ N281      N289           8   0.0892068
  27965 │ N281      N290           7   0.104614
  27966 │ N289      N290           7   0.0511663
                                27958 rows omitted
```
…
