…
## Step 3: Nicer formatting for results
The results can look nicer and more legible with this code snippet. You may need to import `DataFrames`, since PopGen.jl doesn't reexport the `DataFrame` function.
```julia
julia> df_tsne = DataFrame(results_tsne, String["dim"*"$i" for i in 1:size(results_tsne, 2)]); 
julia> insertcols!(df_tsne, 1, :name => samplenames(cats), :population => cats.sampleinfo.population)
237×7 DataFrame
 Row │ name     population  dim1        dim2        dim3        ⋯
     │ String7  String      Float64     Float64     Float64     ⋯
─────┼───────────────────────────────────────────────────────────
   1 │ N215     1            2.33077    -0.313104    1.15179    ⋯
   2 │ N216     1           -1.41855    -1.16244     4.58651
   3 │ N217     1            0.181728   -0.15139     0.813046
   4 │ N218     1           -1.24196     0.676003   -0.805543
   5 │ N219     1           -1.94341    -0.221126    0.443529   ⋯
   6 │ N220     1           -1.87612    -0.280161   -1.11817
   7 │ N221     1           -0.283864    0.322579   -0.425085
   8 │ N222     1            5.43832    11.368       0.727039
  ⋮  │    ⋮         ⋮           ⋮           ⋮           ⋮       ⋱
 231 │ N294     17           5.34851    -2.43159     0.685094   ⋯
 232 │ N295     17          11.3574      7.64794    13.1644
 233 │ N296     17           8.05785     1.7843     -8.18657
 234 │ N297     17          -0.23807     0.729471    0.548891
 235 │ N281     17          -0.264675   -0.0643155   0.0122561  ⋯
 236 │ N289     17           5.07462    -0.467093    0.0678861
 237 │ N290     17          -4.76319     7.16874    -7.3478
                                   2 columns and 222 rows omitted
```
…
