…
julia> kinship(cats, method = Moran, iterations = 100)
27966×7 DataFrame
   Row │ sample1  sample2  Moran     bootmean  std       CI_lower      CI_upper 
       │ String   String   Float64   Float64   Float64   Float64       Float64  
───────┼────────────────────────────────────────────────────────────────────────
     1 │ N215     N216     1.62338   0.376626  0.27286    0.00274863   0.916719
     2 │ N215     N217     0.673577  0.202888  0.20094    0.00105976   0.59871
     3 │ N215     N218     0.896935  0.206272  0.232048   7.58373e-5   0.786113
     4 │ N215     N219     0.988931  0.236503  0.221345  -0.00053018   0.718204
   ⋮   │    ⋮        ⋮        ⋮         ⋮         ⋮           ⋮           ⋮
 27964 │ N281     N289     0.942749  0.220475  0.200358   0.001656     0.799307
 27965 │ N281     N290     1.08762   0.285053  0.289967   0.000299019  1.09343
 27966 │ N289     N290     1.104     0.277445  0.235519   0.00186445   0.858206
                                                              27959 rows omitted
```
…
### 🔵 kinshiptotable
```julia
kinshiptotable(kinshipresults::T, methd::Symbol) where T<:NamedMatrix
```
Converts the `NamedMatrix` result from the non-bootstrapped `kinship()` results into a `DataFrame`.
The second positonal argument (`methd`) is the name of the value column (default: `kinship`). For
better analysis workflow, it would be useful to specify the method for this column, to
keep track of which estimator was used (e.g., `Blouin`, `LynchLi`, etc.)
**Example**
```julia
julia> cats = @nancycats ; kin = kinship(cats, method = Moran) ;
julia> kinshiptotable(kin, :Moran)
22366×3 DataFrame
   Row │ sample1  sample2  Moran      
       │ String   String   Float64      
───────┼────────────────────────────────
     1 │ cc_001   cc_002    0.00688008
     2 │ cc_001   cc_003   -0.0286812
     3 │ cc_001   cc_005   -0.000749142
     4 │ cc_001   cc_007    0.0516361
     5 │ cc_001   cc_008    0.0261128
     6 │ cc_001   cc_009   -0.00187027
     7 │ cc_001   cc_010    0.0182852
   ⋮   │    ⋮        ⋮          ⋮
 22361 │ seg_028  seg_029  -0.0472928
 22362 │ seg_028  seg_030  -0.0172853
 22363 │ seg_028  seg_031  -0.00240921
 22364 │ seg_029  seg_030  -0.0278483
 22365 │ seg_029  seg_031   0.0297876
 22366 │ seg_030  seg_031  -0.0371295
                      22353 rows omitted
```
