…
<Tabs
  block={true}
  defaultValue="rel"
  values={[
    { label: 'relatedness', value: 'rel', },
    { label: 'plotting', value: 'pl', },
  ]
}>
<TabItem value="rel">

```
julia> rel_out.LynchLi
27966×8 DataFrame
   Row │ sample_1  sample_2  n_loci  LynchLi     LynchLi_mean  LynchLi_median  LynchLi_S ⋯
       │ String    String    Int64   Float64?    Float64?      Float64?        Float64?  ⋯
───────┼──────────────────────────────────────────────────────────────────────────────────
     1 │ N215      N216           8   0.743535      0.747288        0.748042     0.75344 ⋯
     2 │ N215      N217           8   0.230605      0.233593        0.240085     0.34187
     3 │ N215      N218           8   0.230605      0.230507        0.221861     0.32161
     4 │ N215      N219           8   0.230605      0.23601         0.23567      0.32782
     5 │ N215      N220           8   0.333191      0.33798         0.350492     0.39898 ⋯
     6 │ N215      N221           8   0.589656      0.594223        0.601308     0.61945
     7 │ N215      N222           8   0.0254328     0.0347216       0.0262021    0.21408
     8 │ N215      N223           8   0.333191      0.329983        0.331411     0.38402
     9 │ N215      N224           8  -0.0258602    -0.021062       -0.0301579    0.21112 ⋯
    10 │ N215      N7             8  -0.282325     -0.27967        -0.288337     0.33611
    11 │ N215      N141           8  -0.0771532    -0.0796867      -0.083113     0.21261
    12 │ N215      N142           8   0.0254328     0.0302549       0.0330718    0.23957
   ⋮   │    ⋮         ⋮        ⋮         ⋮            ⋮              ⋮             ⋮     ⋱
 27955 │ N295      N289           7   0.322731      0.347021        0.34118      0.41168 ⋯
 27956 │ N295      N290           7   0.153414      0.160102        0.164866     0.22862
 27957 │ N296      N297           7  -0.0159038    -0.0182747      -0.0187108    0.16981
 27958 │ N296      N281           7   0.0405353     0.037025        0.0422647    0.15294
 27959 │ N296      N289           7   0.322731      0.328379        0.337317     0.35578 ⋯
 27960 │ N296      N290           7   0.153414      0.152384        0.16194      0.19131
 27961 │ N297      N281           7  -0.0159038    -0.0128349      -0.0303449    0.21030
 27962 │ N297      N289           7   0.37917       0.392517        0.392818     0.45139
 27963 │ N297      N290           7   0.435609      0.437829        0.450044     0.47027 ⋯
 27964 │ N281      N289           8   0.20428       0.21279         0.207425     0.29611
 27965 │ N281      N290           7   0.37917       0.386583        0.390585     0.45471
 27966 │ N289      N290           7   0.209853      0.217811        0.222894     0.28649
                                                          2 columns and 27942 rows omitted
```
…
<Tabs
  block={true}
  defaultValue="un"
  values={[
    { label: 'unrelated relatedness', value: 'un', },
    { label: 'halfsib relatedness', value: 'h', },
    { label: 'fullsib relatedness', value: 'f', },
  ]
}>
<TabItem value="un">

```julia
julia> un_sims_rel = kinship(unrelated_sims, method = LynchLi)
500×4 DataFrame
 Row │ sample_1            sample_2            n_loci  LynchLi    
     │ String              String              Int64   Float64?   
─────┼────────────────────────────────────────────────────────────
   1 │ sim001_unrelated_1  sim001_unrelated_2       9  -0.11419
   2 │ sim002_unrelated_1  sim002_unrelated_2       9  -0.337028
   3 │ sim003_unrelated_1  sim003_unrelated_2       9  -0.0696222
  ⋮  │         ⋮                   ⋮             ⋮         ⋮
 498 │ sim498_unrelated_1  sim498_unrelated_2       9   0.019513
 499 │ sim499_unrelated_1  sim499_unrelated_2       9   0.019513
 500 │ sim500_unrelated_1  sim500_unrelated_2       9   0.019513
                                                  494 rows omitted
```

</TabItem>
<TabItem value="h">

```julia
julia> half_sims_rel = kinship(halfsib_sims, method = LynchLi)
500×4 DataFrame
 Row │ sample_1          sample_2          n_loci  LynchLi    
     │ String            String            Int64   Float64?   
─────┼────────────────────────────────────────────────────────
   1 │ sim001_halfsib_1  sim001_halfsib_2       9  -0.0182636
   2 │ sim002_halfsib_1  sim002_halfsib_2       9   0.468732
   3 │ sim003_halfsib_1  sim003_halfsib_2       9   0.291643
  ⋮  │        ⋮                 ⋮            ⋮         ⋮
 498 │ sim498_halfsib_1  sim498_halfsib_2       9   0.42446
 499 │ sim499_halfsib_1  sim499_halfsib_2       9   0.513004
 500 │ sim500_halfsib_1  sim500_halfsib_2       9   0.0702811
                                              494 rows omitted
```

</TabItem>
<TabItem value="f">

```julia
julia> full_sims_rel = kinship(fullsib_sims, method = LynchLi)
500×4 DataFrame
 Row │ sample_1          sample_2          n_loci  LynchLi  
     │ String            String            Int64   Float64? 
─────┼──────────────────────────────────────────────────────
   1 │ sim001_fullsib_1  sim001_fullsib_2       9  0.732808
   2 │ sim002_fullsib_1  sim002_fullsib_2       9  0.599213
   3 │ sim003_fullsib_1  sim003_fullsib_2       9  0.376553
  ⋮  │        ⋮                 ⋮            ⋮        ⋮
 498 │ sim498_fullsib_1  sim498_fullsib_2       9  0.376553
 499 │ sim499_fullsib_1  sim499_fullsib_2       9  0.510149
 500 │ sim500_fullsib_1  sim500_fullsib_2       9  0.109361
                                            494 rows omitted
```
…
