…
**Example**
```julia
julia> cats = @nancycats ;
julia> km = kmeans(cats, krange = 2:7)
K-Means(++) Clustering Results
  K values:          2, 3, 4, 5, 6, 7
  Iterations per K:  2, 4, 6, 5, 5, 7
  Convergence per K: T, T, T, T, T, T
  Total Cost per K:  91.41, 90.679, 89.54, 89.287, 88.284, 87.957
  Available fields to inspect: assignments, costs, centers, other
  
julia> km.assignments
237×7 DataFrame
 Row │ name     2      3      4      5      6      7     
     │ String7  Int64  Int64  Int64  Int64  Int64  Int64
─────┼───────────────────────────────────────────────────
   1 │ N215         1      1      1      2      3      3
   2 │ N216         1      2      1      2      3      6
   3 │ N217         1      3      1      1      3      3
   4 │ N218         1      3      1      1      3      6
   5 │ N219         1      2      1      2      3      3
   6 │ N220         1      2      1      2      3      1
  ⋮  │    ⋮       ⋮      ⋮      ⋮      ⋮      ⋮      ⋮
 233 │ N296         1      1      1      2      3      6
 234 │ N297         1      1      3      2      4      3
 235 │ N281         1      2      1      2      3      3
 236 │ N289         1      3      3      2      3      4
 237 │ N290         1      1      1      2      3      6
                                         226 rows omitted
```
