…
If trying to create offspring with an odd ploidy (3,5, etc.), each parent has a 50% chance of 
contributing (½ × ploidy) + 1 alleles for all loci to the offspring. In other words, if ploidy = 3,
there's a 50% chance parent_1 will give 2 alleles for every locus for that simulated cross.

**Example**
```
julia> cats = @nanycats ;

julia> cat_sims = simulate_sibship(cats, fullsib = 10, halfsib = 50)
PopData{Diploid, 9 Microsatellite loci}
  Samples: 120
  Populations: 2

julia> cat_sims.sampleinfo
120×3 DataFrame
 Row │ name             population  ploidy 
     │ String           String      Int64  
─────┼─────────────────────────────────────
   1 │ sim01_fullsib_1  fullsib          2
   2 │ sim01_fullsib_2  fullsib          2
   3 │ sim02_fullsib_1  fullsib          2
   4 │ sim02_fullsib_2  fullsib          2
   5 │ sim03_fullsib_1  fullsib          2
   6 │ sim03_fullsib_2  fullsib          2
  ⋮  │        ⋮             ⋮         ⋮
 115 │ sim48_halfsib_1  halfsib          2
 116 │ sim48_halfsib_2  halfsib          2
 117 │ sim49_halfsib_1  halfsib          2
 118 │ sim49_halfsib_2  halfsib          2
 119 │ sim50_halfsib_1  halfsib          2
 120 │ sim50_halfsib_2  halfsib          2
                           108 rows omitted
```
